…
The following code chunk selects station name and line, and then uses
`distinct()` from `dplyr` to select only unique/distinct rows from the
data frame. As a result, the number of rows in this dataset will be
equal to the number of unique stations. We see that there are 465 unique
stations.

``` r
subway_data %>%
  select(station_name, line) %>%
  distinct
```

    ## # A tibble: 465 × 2
    ##    station_name             line    
    ##    <chr>                    <chr>   
    ##  1 25th St                  4 Avenue
    ##  2 36th St                  4 Avenue
    ##  3 45th St                  4 Avenue
    ##  4 53rd St                  4 Avenue
    ##  5 59th St                  4 Avenue
    ##  6 77th St                  4 Avenue
    ##  7 86th St                  4 Avenue
    ##  8 95th St                  4 Avenue
    ##  9 9th St                   4 Avenue
    ## 10 Atlantic Av-Barclays Ctr 4 Avenue
    ## # … with 455 more rows

In the next code chunk we now filter according to ADA compliance as an
initial step. This produces a dataframe where the number of rows is
equal to the number of ADA compliant stations. We see that there are 84
ADA compliant stations.

``` r
subway_data %>% 
  filter(ada == TRUE) %>% 
  select(station_name, line) %>% 
  distinct
```

    ## # A tibble: 84 × 2
    ##    station_name                   line           
    ##    <chr>                          <chr>          
    ##  1 Atlantic Av-Barclays Ctr       4 Avenue       
    ##  2 DeKalb Av                      4 Avenue       
    ##  3 Pacific St                     4 Avenue       
    ##  4 Grand Central                  42nd St Shuttle
    ##  5 34th St                        6 Avenue       
    ##  6 47-50th Sts Rockefeller Center 6 Avenue       
    ##  7 Church Av                      6 Avenue       
    ##  8 21st St                        63rd Street    
    ##  9 Lexington Av                   63rd Street    
    ## 10 Roosevelt Island               63rd Street    
    ## # … with 74 more rows
…
``` r
subway_data %>%
    pivot_longer(
    route1:route11,
    names_to = "route_num",
    values_to = "route") %>% 
  filter(route == "A") %>% 
  select(station_name, line) %>% 
  distinct
```

    ## # A tibble: 60 × 2
    ##    station_name                  line           
    ##    <chr>                         <chr>          
    ##  1 Times Square                  42nd St Shuttle
    ##  2 125th St                      8 Avenue       
    ##  3 145th St                      8 Avenue       
    ##  4 14th St                       8 Avenue       
    ##  5 168th St - Washington Heights 8 Avenue       
    ##  6 175th St                      8 Avenue       
    ##  7 181st St                      8 Avenue       
    ##  8 190th St                      8 Avenue       
    ##  9 34th St                       8 Avenue       
    ## 10 42nd St                       8 Avenue       
    ## # … with 50 more rows
…
